This is BibTeX, Version 0.99d (TeX Live 2017/Debian)
Capacity: max_strings=100000, hash_size=100000, hash_prime=85009
The top-level auxiliary file: main.aux
The style file: unsrt.bst
Database file #1: refs.bib.bib
Warning--empty publisher in d7f59895de804900b0c6d17f4b361656
You've used 38 entries,
            1791 wiz_defined-function locations,
            628 strings with 10566 characters,
and the built_in function-call counts, 7361 in all, are:
= -- 606
> -- 378
< -- 5
+ -- 143
- -- 105
* -- 431
:= -- 1098
add.period$ -- 92
call.type$ -- 38
change.case$ -- 24
chr.to.int$ -- 0
cite$ -- 39
duplicate$ -- 345
empty$ -- 765
format.name$ -- 105
if$ -- 1690
int.to.chr$ -- 0
int.to.str$ -- 38
missing$ -- 26
newline$ -- 167
num.names$ -- 27
pop$ -- 142
preamble$ -- 1
purify$ -- 0
quote$ -- 0
skip$ -- 256
stack$ -- 0
substring$ -- 309
swap$ -- 90
text.length$ -- 5
text.prefix$ -- 0
top$ -- 0
type$ -- 0
warning$ -- 1
while$ -- 51
width$ -- 40
write$ -- 344
(There was 1 warning)
