\relax 
\providecommand \oddpage@label [2]{}
\pgfsyspdfmark {pgfid1}{6749099}{51651631}
\citation{DBLP:journals/corr/VinyalsTBE14}
\citation{DBLP:journals/corr/XuBKCCSZB15}
\citation{DBLP:journals/corr/XuBKCCSZB15}
\citation{2017arXiv170707998A}
\citation{2017arXiv170707998A}
\citation{MLP}
\citation{MLP1hidden}
\citation{CNN}
\citation{https://adeshpande3.github.io}
\citation{https://adeshpande3.github.io}
\citation{nopadding}
\citation{padding_stride1}
\citation{pooling}
\citation{https://machinelearningmastery.com}
\citation{https://machinelearningmastery.com}
\citation{https://kvitajakub.github.io}
\citation{https://kvitajakub.github.io}
\citation{ILSVRC}
\citation{https://towardsdatascience.com}
\citation{https://towardsdatascience.com}
\citation{https://towardsdatascience.com}
\citation{https://towardsdatascience.com}
\citation{https://jhui.github.io}
\citation{https://jhui.github.io}
\citation{https://jhui.github.io}
\citation{https://jhui.github.io}
\citation{https://jhui.github.io}
\citation{https://jhui.github.io}
\citation{https://jhui.github.io}
\citation{https://jhui.github.io}
\citation{https://jhui.github.io}
\citation{https://jhui.github.io}
\citation{attention}
\citation{attention}
\citation{attention}
\citation{DBLP:journals/corr/XuBKCCSZB15}
\citation{2014arXiv1409.0575R}
\@writefile{toc}{\contentsline {chapter}{\numberline {1}Gi\IeC {\'\ohorn }i thi\IeC {\d \ecircumflex }u}{1}}
\@writefile{lof}{\addvspace {10\p@ }}
\@writefile{lot}{\addvspace {10\p@ }}
\@writefile{loa}{\addvspace {10\p@ }}
\citation{d7f59895de804900b0c6d17f4b361656}
\citation{Hodosh:2013:FID:2566972.2566993,Ordonez:2011:IDI:2986459.2986587}
\citation{DBLP:journals/corr/SutskeverVL14}
\citation{DBLP:journals/corr/VinyalsTBE14}
\citation{DBLP:journals/corr/VinyalsTBE14}
\@writefile{toc}{\contentsline {chapter}{\numberline {2}C\IeC {\'a}c c\IeC {\^o}ng tr\IeC {\`\i }nh li\IeC {\^e}n quan}{3}}
\@writefile{lof}{\addvspace {10\p@ }}
\@writefile{lot}{\addvspace {10\p@ }}
\@writefile{loa}{\addvspace {10\p@ }}
\newlabel{chp:relatedworks}{{2}{3}}
\@writefile{toc}{\contentsline {section}{\numberline {2.1}L\IeC {\d i}ch s\IeC {\h \uhorn } ph\IeC {\'a}t tri\IeC {\h \ecircumflex }n m\IeC {\^o} h\IeC {\`\i }nh}{3}}
\newlabel{sec:related}{{2.1}{3}}
\@writefile{toc}{\contentsline {subsection}{\numberline {2.1.1}C\IeC {\'a}c c\IeC {\^o}ng tr\IeC {\`\i }nh nghi\IeC {\^e}n c\IeC {\'\uhorn }u tr\IeC {\^e}n th\IeC {\'\ecircumflex } gi\IeC {\'\ohorn }i}{3}}
\newlabel{subsec:world}{{2.1.1}{3}}
\citation{DBLP:journals/corr/VinyalsTBE14}
\citation{DBLP:journals/corr/XuBKCCSZB15}
\citation{DBLP:journals/corr/XuBKCCSZB15}
\@writefile{lof}{\contentsline {figure}{\numberline {2.1}{\ignorespaces Ki\IeC {\'\ecircumflex }n tr\IeC {\'u}c m\IeC {\^o} h\IeC {\`\i }nh \emph  {Show and Tell}.\nobreakspace  {}\cite  {DBLP:journals/corr/VinyalsTBE14} \relax }}{4}}
\providecommand*\caption@xref[2]{\@setref\relax\@undefined{#1}}
\newlabel{fig:showmodel}{{2.1}{4}}
\@writefile{toc}{\contentsline {subsubsection}{Show and Tell: A Neural Image Caption Generator}{4}}
\newlabel{eq:showmodel1}{{2.1}{4}}
\newlabel{eq:showmodel2}{{2.2}{4}}
\newlabel{eq:showmodel3}{{2.3}{4}}
\citation{DBLP:journals/corr/XuBKCCSZB15}
\citation{DBLP:journals/corr/BahdanauCB14}
\citation{DBLP:journals/corr/SimonyanZ14a}
\citation{DBLP:journals/corr/KingmaB14}
\@writefile{lof}{\contentsline {figure}{\numberline {2.2}{\ignorespaces Ki\IeC {\'\ecircumflex }n tr\IeC {\'u}c m\IeC {\^o} h\IeC {\`\i }nh \emph  {Show, Attend and Tell}.\nobreakspace  {}\cite  {DBLP:journals/corr/XuBKCCSZB15} \relax }}{5}}
\newlabel{fig:attendmodel}{{2.2}{5}}
\@writefile{toc}{\contentsline {subsubsection}{Show, Attend and Tell: Neural Image Caption Generation with Visual Attention}{5}}
\citation{DBLP:journals/corr/XuBKCCSZB15}
\citation{DBLP:journals/corr/XuBKCCSZB15}
\citation{2017arXiv170707998A}
\citation{2017arXiv170707998A}
\citation{2017arXiv170707998A}
\citation{2015arXiv150601497R}
\@writefile{lof}{\contentsline {figure}{\numberline {2.3}{\ignorespaces Minh ho\IeC {\d a} vi\IeC {\d \ecircumflex }c l\IeC {\d \uhorn }a ch\IeC {\d o}n v\IeC {\d i} tr\IeC {\'\i } tr\IeC {\^e}n \IeC {\h a}nh c\IeC {\h u}a c\IeC {\ohorn } ch\IeC {\'\ecircumflex } attention. \nobreakspace  {}\cite  {DBLP:journals/corr/XuBKCCSZB15} \relax }}{6}}
\newlabel{fig:attendexample}{{2.3}{6}}
\@writefile{lof}{\contentsline {figure}{\numberline {2.4}{\ignorespaces S\IeC {\d \uhorn } kh\IeC {\'a}c nhau gi\IeC {\~\uhorn }a \IeC {\dj }\IeC {\d \abreve }c tr\IeC {\uhorn }ng \IeC {\dj }\IeC {\uhorn }\IeC {\d \ohorn }c tr\IeC {\'\i }ch xu\IeC {\'\acircumflex }t t\IeC {\`\uhorn } CNN v\IeC {\`a} Faster-RCNN.\nobreakspace  {}\cite  {2017arXiv170707998A} \relax }}{6}}
\newlabel{fig:bottomupft}{{2.4}{6}}
\@writefile{toc}{\contentsline {subsubsection}{Bottom-Up and Top-Down Attention cho vi\IeC {\d \ecircumflex }c ph\IeC {\'a}t sinh c\IeC {\^a}u m\IeC {\^o} t\IeC {\h a} \IeC {\dj }\IeC {\'\ocircumflex }i v\IeC {\'\ohorn }i h\IeC {\`\i }nh \IeC {\h a}nh}{6}}
\citation{2017arXiv170707998A}
\citation{2017arXiv170707998A}
\citation{2015arXiv151106361V}
\citation{2016arXiv161200563R}
\@writefile{lof}{\contentsline {figure}{\numberline {2.5}{\ignorespaces Ki\IeC {\'\ecircumflex }n tr\IeC {\'u}c m\IeC {\^o} h\IeC {\`\i }nh Top-Down Attention.\nobreakspace  {}\cite  {2017arXiv170707998A} \relax }}{7}}
\newlabel{fig:bottomup}{{2.5}{7}}
\@writefile{toc}{\contentsline {subsection}{\numberline {2.1.2}C\IeC {\'a}c c\IeC {\^o}ng tr\IeC {\`\i }nh nghi\IeC {\^e}n c\IeC {\'\uhorn }u \IeC {\h \ohorn } Vi\IeC {\d \ecircumflex }t Nam}{7}}
\newlabel{subsec:vietnam}{{2.1.2}{7}}
\citation{dataset-flickr8k}
\citation{dataset-flickr30k}
\citation{DBLP:journals/corr/ChenFLVGDZ15}
\gdef \LT@i {\LT@entry 
    {2}{66.18797pt}\LT@entry 
    {1}{69.3055pt}\LT@entry 
    {1}{69.3055pt}\LT@entry 
    {1}{97.75826pt}\LT@entry 
    {1}{146.12785pt}}
\@writefile{toc}{\contentsline {section}{\numberline {2.2}C\IeC {\'a}c b\IeC {\d \ocircumflex } d\IeC {\~\uhorn } li\IeC {\d \ecircumflex }u chu\IeC {\h \acircumflex }n}{8}}
\newlabel{sec:datasets}{{2.2}{8}}
\@writefile{lot}{\contentsline {table}{\numberline {2.1}{\ignorespaces C\IeC {\'a}c b\IeC {\d \ocircumflex } d\IeC {\~\uhorn } li\IeC {\d \ecircumflex }u \IeC {\dj }\IeC {\d \abreve }c tr\IeC {\uhorn }ng cho b\IeC {\`a}i to\IeC {\'a}n ph\IeC {\'a}t sinh c\IeC {\^a}u m\IeC {\^o} t\IeC {\h a} cho h\IeC {\`\i }nh \IeC {\h a}nh\relax }}{8}}
\newlabel{tab:datasets}{{2.1}{8}}
\citation{Papineni:2002:BMA:1073083.1073135}
\citation{Lavie:2007:MAM:1626355.1626389}
\citation{Vedantam_2015_CVPR}
\@writefile{toc}{\contentsline {section}{\numberline {2.3}C\IeC {\'a}c th\IeC {\uhorn }\IeC {\'\ohorn }c \IeC {\dj }o \IeC {\dj }\IeC {\'a}nh gi\IeC {\'a}}{9}}
\newlabel{sec:evaluation}{{2.3}{9}}
\@writefile{toc}{\contentsline {chapter}{\numberline {3}Ki\IeC {\'\ecircumflex }n th\IeC {\'\uhorn }c n\IeC {\`\ecircumflex }n t\IeC {\h a}ng}{10}}
\@writefile{lof}{\addvspace {10\p@ }}
\@writefile{lot}{\addvspace {10\p@ }}
\@writefile{loa}{\addvspace {10\p@ }}
\newlabel{chp:theory}{{3}{10}}
\@writefile{toc}{\contentsline {section}{\numberline {3.1}Neural Networks}{10}}
\@writefile{toc}{\contentsline {subsection}{\numberline {3.1.1}Perceptron}{10}}
\newlabel{eq:perceptron1}{{3.1}{10}}
\citation{MLP}
\citation{MLP}
\citation{MLP1hidden}
\citation{MLP1hidden}
\@writefile{lof}{\contentsline {figure}{\numberline {3.1}{\ignorespaces C\IeC {\'\acircumflex }u tr\IeC {\'u}c multi layer perceptron.\nobreakspace  {}\cite  {MLP}\relax }}{11}}
\newlabel{img:mlp1}{{3.1}{11}}
\@writefile{lof}{\contentsline {figure}{\numberline {3.2}{\ignorespaces Multi layer perceptron v\IeC {\'\ohorn }i m\IeC {\d \ocircumflex }t hidden layer.\nobreakspace  {}\cite  {MLP1hidden} \relax }}{11}}
\newlabel{img:mlp2}{{3.2}{11}}
\newlabel{eq:perceptron2}{{3.2}{11}}
\@writefile{toc}{\contentsline {subsection}{\numberline {3.1.2}Multi-Layer Perceptron}{11}}
\newlabel{eq:mlp1}{{3.3}{11}}
\citation{CNN}
\citation{CNN}
\@writefile{toc}{\contentsline {subsection}{\numberline {3.1.3}Backpropagation}{12}}
\newlabel{eq:bp1}{{3.4}{12}}
\newlabel{eq:bp2}{{3.5}{12}}
\newlabel{eq:bp3}{{3.6}{12}}
\@writefile{toc}{\contentsline {subsection}{\numberline {3.1.4}Convolutional neural networks}{12}}
\citation{https://adeshpande3.github.io}
\citation{https://adeshpande3.github.io}
\citation{https://adeshpande3.github.io}
\citation{https://adeshpande3.github.io}
\citation{nopadding}
\citation{nopadding}
\citation{padding_stride1}
\citation{padding_stride1}
\citation{pooling}
\citation{pooling}
\@writefile{lof}{\contentsline {figure}{\numberline {3.3}{\ignorespaces V\IeC {\'\i } d\IeC {\d u} v\IeC {\`\ecircumflex } m\IeC {\d \ocircumflex }t m\IeC {\^o} h\IeC {\`\i }nh CNN.\nobreakspace  {}\cite  {CNN}\relax }}{13}}
\newlabel{img:cnn}{{3.3}{13}}
\@writefile{lof}{\contentsline {figure}{\numberline {3.4}{\ignorespaces Stride b\IeC {\`\abreve }ng 2. \nobreakspace  {}\cite  {https://adeshpande3.github.io} \relax }}{14}}
\newlabel{img:cnn2}{{3.4}{14}}
\@writefile{lof}{\contentsline {figure}{\numberline {3.5}{\ignorespaces Stride b\IeC {\`\abreve }ng 1. \nobreakspace  {}\cite  {https://adeshpande3.github.io}\relax }}{14}}
\newlabel{img:cnn3}{{3.5}{14}}
\@writefile{lof}{\contentsline {figure}{\numberline {3.6}{\ignorespaces Kh\IeC {\^o}ng s\IeC {\h \uhorn } d\IeC {\d u}ng padding. \nobreakspace  {}\cite  {nopadding}\relax }}{14}}
\newlabel{img:cnn4}{{3.6}{14}}
\@writefile{toc}{\contentsline {subsection}{\numberline {3.1.5}Recurrent Neural Networks}{14}}
\citation{https://machinelearningmastery.com}
\citation{https://machinelearningmastery.com}
\citation{https://machinelearningmastery.com}
\citation{https://machinelearningmastery.com}
\@writefile{lof}{\contentsline {figure}{\numberline {3.7}{\ignorespaces S\IeC {\h \uhorn } d\IeC {\d u}ng padding v\IeC {\`a} stride b\IeC {\`\abreve }ng 1. \nobreakspace  {}\cite  {padding_stride1}\relax }}{15}}
\newlabel{img:cnn5}{{3.7}{15}}
\@writefile{lof}{\contentsline {figure}{\numberline {3.8}{\ignorespaces Max pooling v\IeC {\`a} average pooling. \nobreakspace  {}\cite  {pooling}\relax }}{15}}
\newlabel{img:cnn6}{{3.8}{15}}
\citation{https://kvitajakub.github.io}
\citation{https://kvitajakub.github.io}
\@writefile{lof}{\contentsline {figure}{\numberline {3.9}{\ignorespaces V\IeC {\'\i } d\IeC {\d u} v\IeC {\`\ecircumflex } RNN. \nobreakspace  {}\cite  {https://machinelearningmastery.com}\relax }}{16}}
\newlabel{img:rnn1}{{3.9}{16}}
\@writefile{lof}{\contentsline {figure}{\numberline {3.10}{\ignorespaces RNN \IeC {\dj }\IeC {\uhorn }\IeC {\d \ohorn }c k\IeC {\'e}o th\IeC {\h \abreve }ng. \nobreakspace  {}\cite  {https://machinelearningmastery.com}\relax }}{16}}
\newlabel{img:rnn2}{{3.10}{16}}
\@writefile{lof}{\contentsline {figure}{\numberline {3.11}{\ignorespaces S\IeC {\ohorn } \IeC {\dj }\IeC {\`\ocircumflex } lu\IeC {\`\ocircumflex }ng \IeC {\dj }i c\IeC {\h u}a d\IeC {\~\uhorn } li\IeC {\d \ecircumflex }u trong LSTM. \nobreakspace  {}\cite  {https://kvitajakub.github.io}\relax }}{16}}
\newlabel{img:lstm1}{{3.11}{16}}
\@writefile{toc}{\contentsline {subsubsection}{Long Short Term Memory networks}{16}}
\newlabel{sssec:lstm}{{3.1.5}{16}}
\citation{https://kvitajakub.github.io}
\citation{https://kvitajakub.github.io}
\@writefile{lof}{\contentsline {figure}{\numberline {3.12}{\ignorespaces S\IeC {\ohorn } \IeC {\dj }\IeC {\`\ocircumflex } lu\IeC {\`\ocircumflex }ng \IeC {\dj }i c\IeC {\h u}a d\IeC {\~\uhorn } li\IeC {\d \ecircumflex }u trong GRU. \nobreakspace  {}\cite  {https://kvitajakub.github.io}\relax }}{17}}
\newlabel{img:gru1}{{3.12}{17}}
\newlabel{eq:lstm1}{{3.7}{17}}
\newlabel{eq:lstm2}{{3.8}{17}}
\newlabel{eq:lstm3}{{3.9}{17}}
\newlabel{eq:lstm4}{{3.10}{17}}
\newlabel{eq:lstm5}{{3.11}{17}}
\newlabel{eq:lstm6}{{3.12}{17}}
\newlabel{eq:lstm7}{{3.13}{17}}
\@writefile{toc}{\contentsline {subsubsection}{Gated Recurrent Unit}{17}}
\newlabel{eq:gru1}{{3.14}{17}}
\newlabel{eq:gru2}{{3.15}{17}}
\newlabel{eq:gru3}{{3.16}{17}}
\newlabel{eq:gru4}{{3.17}{17}}
\citation{ILSVRC}
\citation{ILSVRC}
\citation{https://towardsdatascience.com}
\citation{https://towardsdatascience.com}
\citation{https://towardsdatascience.com}
\citation{https://towardsdatascience.com}
\citation{https://towardsdatascience.com}
\citation{https://towardsdatascience.com}
\citation{https://towardsdatascience.com}
\citation{https://towardsdatascience.com}
\@writefile{toc}{\contentsline {section}{\numberline {3.2}ResNet}{18}}
\@writefile{lof}{\contentsline {figure}{\numberline {3.13}{\ignorespaces Nh\IeC {\~\uhorn }ng m\IeC {\^o} h\IeC {\`\i }nh \IeC {\dj }\IeC {\'\uhorn }ng \IeC {\dj }\IeC {\`\acircumflex }u cu\IeC {\d \ocircumflex }c thi ILSVRC theo th\IeC {\`\ohorn }i gian. \nobreakspace  {}\cite  {ILSVRC}\relax }}{18}}
\newlabel{img:resnet1}{{3.13}{18}}
\citation{https://jhui.github.io}
\citation{https://jhui.github.io}
\citation{https://jhui.github.io}
\citation{https://jhui.github.io}
\citation{https://jhui.github.io}
\citation{https://jhui.github.io}
\citation{https://jhui.github.io}
\citation{https://jhui.github.io}
\citation{https://jhui.github.io}
\citation{https://jhui.github.io}
\@writefile{lof}{\contentsline {figure}{\numberline {3.14}{\ignorespaces T\IeC {\u a}ng \IeC {\dj }\IeC {\d \ocircumflex } s\IeC {\^a}u c\IeC {\h u}a m\IeC {\^o} h\IeC {\`\i }nh l\IeC {\`a}m cho hi\IeC {\d \ecircumflex }u su\IeC {\'\acircumflex }t gi\IeC {\h a}m. \nobreakspace  {}\cite  {https://towardsdatascience.com}\relax }}{19}}
\newlabel{img:resnet2}{{3.14}{19}}
\@writefile{lof}{\contentsline {figure}{\numberline {3.15}{\ignorespaces M\IeC {\d \ocircumflex }t kh\IeC {\'\ocircumflex }i c\IeC {\h u}a residual networks. \nobreakspace  {}\cite  {https://towardsdatascience.com}\relax }}{19}}
\newlabel{img:resnet3}{{3.15}{19}}
\@writefile{lof}{\contentsline {figure}{\numberline {3.16}{\ignorespaces B\IeC {\^e}n tr\IeC {\'a}i l\IeC {\`a} m\IeC {\d \ocircumflex }t kh\IeC {\'\ocircumflex }i c\IeC {\h u}a Resnet, b\IeC {\^e}n ph\IeC {\h a}i l\IeC {\`a} m\IeC {\d \ocircumflex }t kh\IeC {\'\ocircumflex }i c\IeC {\h u}a ResNeXt. \nobreakspace  {}\cite  {https://towardsdatascience.com}\relax }}{19}}
\newlabel{img:resnet4}{{3.16}{19}}
\@writefile{lof}{\contentsline {figure}{\numberline {3.17}{\ignorespaces Ki\IeC {\'\ecircumflex }n tr\IeC {\'u}c Densely Connected CNN. \nobreakspace  {}\cite  {https://towardsdatascience.com}\relax }}{19}}
\newlabel{img:resnet5}{{3.17}{19}}
\@writefile{toc}{\contentsline {section}{\numberline {3.3}Faster RCNN}{19}}
\citation{https://jhui.github.io}
\citation{https://jhui.github.io}
\@writefile{lof}{\contentsline {figure}{\numberline {3.18}{\ignorespaces V\IeC {\'\i } d\IeC {\d u} v\IeC {\`\ecircumflex } ph\IeC {\'a}t hi\IeC {\d \ecircumflex }n v\IeC {\d \acircumflex }t th\IeC {\h \ecircumflex }. \nobreakspace  {}\cite  {https://jhui.github.io}\relax }}{20}}
\newlabel{img:faster1}{{3.18}{20}}
\@writefile{lof}{\contentsline {figure}{\numberline {3.19}{\ignorespaces C\IeC {\'a}ch RCNN ho\IeC {\d a}t \IeC {\dj }\IeC {\d \ocircumflex }ng. \nobreakspace  {}\cite  {https://jhui.github.io}\relax }}{20}}
\newlabel{img:faster2}{{3.19}{20}}
\@writefile{lof}{\contentsline {figure}{\numberline {3.20}{\ignorespaces \IeC {\DJ }\IeC {\`\ocircumflex }ng b\IeC {\d \ocircumflex } k\IeC {\'\i }ch th\IeC {\uhorn }\IeC {\'\ohorn }c cho c\IeC {\'a}c region proposals. \nobreakspace  {}\cite  {https://jhui.github.io}\relax }}{20}}
\newlabel{img:faster3}{{3.20}{20}}
\citation{https://jhui.github.io}
\citation{https://jhui.github.io}
\citation{https://jhui.github.io}
\citation{https://jhui.github.io}
\citation{https://jhui.github.io}
\citation{https://jhui.github.io}
\@writefile{lof}{\contentsline {figure}{\numberline {3.21}{\ignorespaces Tr\IeC {\'\i }ch xu\IeC {\'\acircumflex }t feature cho c\IeC {\'a}c region proposals. \nobreakspace  {}\cite  {https://jhui.github.io}\relax }}{21}}
\newlabel{img:faster4}{{3.21}{21}}
\@writefile{lof}{\contentsline {figure}{\numberline {3.22}{\ignorespaces X\IeC {\'a}c \IeC {\dj }\IeC {\d i}nh lo\IeC {\d a}i \IeC {\dj }\IeC {\'\ocircumflex }i t\IeC {\uhorn }\IeC {\d \ohorn }ng. \nobreakspace  {}\cite  {https://jhui.github.io}\relax }}{21}}
\newlabel{img:faster5}{{3.22}{21}}
\@writefile{lof}{\contentsline {figure}{\numberline {3.23}{\ignorespaces T\IeC {\d a}o feature map \IeC {\dj }\IeC {\h \ecircumflex } sinh c\IeC {\'a}c region proposal. \nobreakspace  {}\cite  {https://jhui.github.io}\relax }}{21}}
\newlabel{img:faster6}{{3.23}{21}}
\citation{https://jhui.github.io}
\citation{https://jhui.github.io}
\citation{attention}
\citation{attention}
\@writefile{lof}{\contentsline {figure}{\numberline {3.24}{\ignorespaces C\IeC {\ohorn } ch\IeC {\'\ecircumflex } ho\IeC {\d a}t \IeC {\dj }\IeC {\d \ocircumflex }ng c\IeC {\h u}a Fast RCNN. \nobreakspace  {}\cite  {https://jhui.github.io}\relax }}{22}}
\newlabel{img:faster7}{{3.24}{22}}
\@writefile{lof}{\contentsline {figure}{\numberline {3.25}{\ignorespaces C\IeC {\ohorn } ch\IeC {\'\ecircumflex } ho\IeC {\d a}t \IeC {\dj }\IeC {\d \ocircumflex }ng c\IeC {\h u}a Faster RCNN. \nobreakspace  {}\cite  {https://jhui.github.io}\relax }}{22}}
\newlabel{img:faster8}{{3.25}{22}}
\@writefile{lof}{\contentsline {figure}{\numberline {3.26}{\ignorespaces C\IeC {\ohorn } ch\IeC {\'\ecircumflex } ho\IeC {\d a}t \IeC {\dj }\IeC {\d \ocircumflex }ng c\IeC {\h u}a RPN. \nobreakspace  {}\cite  {https://jhui.github.io}\relax }}{22}}
\newlabel{img:faster9}{{3.26}{22}}
\citation{NIPS2010_4089,2011arXiv1109.3737D}
\citation{attention}
\citation{attention}
\@writefile{lof}{\contentsline {figure}{\numberline {3.27}{\ignorespaces C\IeC {\'a}ch RPN t\IeC {\d a}o ra nhi\IeC {\`\ecircumflex }u proposals. \nobreakspace  {}\cite  {https://jhui.github.io}\relax }}{23}}
\newlabel{img:faster10}{{3.27}{23}}
\@writefile{lof}{\contentsline {figure}{\numberline {3.28}{\ignorespaces V\IeC {\'\i } d\IeC {\d u} minh ho\IeC {\d a} v\IeC {\`\ecircumflex } qu\IeC {\'a} tr\IeC {\`\i }nh ph\IeC {\^a}n t\IeC {\'\i }ch h\IeC {\`\i }nh \IeC {\h a}nh \IeC {\dj }\IeC {\h \ecircumflex } sinh c\IeC {\^a}u mi\IeC {\^e}u t\IeC {\h a} c\IeC {\h u}a con ng\IeC {\uhorn }\IeC {\`\ohorn }i.\nobreakspace  {}\cite  {attention} \relax }}{23}}
\newlabel{fig:attex}{{3.28}{23}}
\@writefile{toc}{\contentsline {section}{\numberline {3.4}C\IeC {\ohorn } ch\IeC {\'\ecircumflex } attention}{23}}
\citation{attention}
\citation{attention}
\citation{DBLP:journals/corr/BahdanauCB14}
\@writefile{lof}{\contentsline {figure}{\numberline {3.29}{\ignorespaces M\IeC {\^o} h\IeC {\`\i }nh theo ki\IeC {\'\ecircumflex }n tr\IeC {\'u}c encoder-decoder cho Image Captioning.\nobreakspace  {}\cite  {attention} \relax }}{24}}
\newlabel{fig:ecdcmodel}{{3.29}{24}}
\@writefile{toc}{\contentsline {subsection}{\numberline {3.4.1}Attention trong b\IeC {\`a}i to\IeC {\'a}n Image Captioning}{24}}
\@writefile{toc}{\contentsline {subsection}{\numberline {3.4.2}Deterministic "Soft" Attention}{24}}
\citation{DBLP:journals/corr/BahdanauCB14}
\@writefile{lof}{\contentsline {figure}{\numberline {3.30}{\ignorespaces S\IeC {\d \uhorn } kh\IeC {\'a}c bi\IeC {\d \ecircumflex }t gi\IeC {\~\uhorn }a ki\IeC {\'\ecircumflex }n tr\IeC {\'u}c LSTM th\IeC {\uhorn }\IeC {\`\ohorn }ng v\IeC {\`a} c\IeC {\'o} k\IeC {\'\ecircumflex }t h\IeC {\d \ohorn }p c\IeC {\ohorn } ch\IeC {\'\ecircumflex } attention. \nobreakspace  {}\cite  {attention} \relax }}{25}}
\newlabel{fig:lstmtoatt}{{3.30}{25}}
\newlabel{eqn:att}{{3.18}{25}}
\newlabel{eqn:norm}{{3.19}{25}}
\newlabel{eqn:attended}{{3.20}{25}}
\@writefile{toc}{\contentsline {subsection}{\numberline {3.4.3}Stochastic "Hard" Attention}{25}}
\citation{DBLP:journals/corr/XuBKCCSZB15}
\citation{DBLP:journals/corr/XuBKCCSZB15}
\citation{DBLP:journals/corr/XuBKCCSZB15}
\citation{Williams1992}
\@writefile{lof}{\contentsline {figure}{\numberline {3.31}{\ignorespaces Minh ho\IeC {\d a} s\IeC {\d \uhorn } kh\IeC {\'a}c bi\IeC {\d \ecircumflex }t v\IeC {\`\ecircumflex } c\IeC {\'a}ch l\IeC {\d \uhorn }a ch\IeC {\d o}n \IeC {\dj }\IeC {\d \abreve }c tr\IeC {\uhorn }ng gi\IeC {\~\uhorn }a soft attention v\IeC {\`a} hard attention.\nobreakspace  {}\cite  {DBLP:journals/corr/XuBKCCSZB15} \relax }}{26}}
\newlabel{fig:hardsoft}{{3.31}{26}}
\@writefile{toc}{\contentsline {subsection}{\numberline {3.4.4}"Soft" Attention vs "Hard" Attention}{26}}
\newlabel{subsec:softvshard}{{3.4.4}{26}}
\citation{DBLP:journals/corr/VinyalsTBE14,DBLP:journals/corr/XuBKCCSZB15,2017arXiv170707998A}
\@writefile{toc}{\contentsline {chapter}{\numberline {4}H\IeC {\uhorn }\IeC {\'\ohorn }ng ti\IeC {\'\ecircumflex }p c\IeC {\d \acircumflex }n}{27}}
\@writefile{lof}{\addvspace {10\p@ }}
\@writefile{lot}{\addvspace {10\p@ }}
\@writefile{loa}{\addvspace {10\p@ }}
\newlabel{chp:design}{{4}{27}}
\@writefile{toc}{\contentsline {section}{\numberline {4.1}M\IeC {\^o} h\IeC {\`\i }nh c\IeC {\ohorn } b\IeC {\h a}n}{27}}
\@writefile{lof}{\contentsline {figure}{\numberline {4.1}{\ignorespaces M\IeC {\^o} h\IeC {\`\i }nh Encoder-Decoder\relax }}{27}}
\newlabel{encoder-decoder}{{4.1}{27}}
\@writefile{toc}{\contentsline {subsection}{\numberline {4.1.1}M\IeC {\^o} h\IeC {\`\i }nh tr\IeC {\'\i }ch xu\IeC {\'\acircumflex }t \IeC {\dj }\IeC {\d \abreve }c tr\IeC {\uhorn }ng t\IeC {\`\uhorn } \IeC {\h a}nh (encoder)}{27}}
\newlabel{subsec:bottomup}{{4.1.1}{27}}
\@writefile{lof}{\contentsline {figure}{\numberline {4.2}{\ignorespaces Tr\IeC {\'\i }ch xu\IeC {\'\acircumflex }t \IeC {\dj }\IeC {\d \abreve }c tr\IeC {\uhorn }ng t\IeC {\`\uhorn } \IeC {\h a}nh b\IeC {\`\abreve }ng CNN\relax }}{28}}
\newlabel{cnn}{{4.2}{28}}
\@writefile{toc}{\contentsline {subsubsection}{S\IeC {\h \uhorn } d\IeC {\d u}ng CNN (Resnet101)}{28}}
\citation{Hochreiter:1997:LSM:1246443.1246450}
\@writefile{lof}{\contentsline {figure}{\numberline {4.3}{\ignorespaces Tr\IeC {\'\i }ch xu\IeC {\'\acircumflex }t \IeC {\dj }\IeC {\d \abreve }c tr\IeC {\uhorn }ng t\IeC {\`\uhorn } \IeC {\h a}nh b\IeC {\`\abreve }ng Faster RCNN\relax }}{29}}
\newlabel{faster-rcnn}{{4.3}{29}}
\@writefile{toc}{\contentsline {subsubsection}{S\IeC {\h \uhorn } d\IeC {\d u}ng Faster-RCNN}{29}}
\@writefile{lof}{\contentsline {figure}{\numberline {4.4}{\ignorespaces M\IeC {\^o} h\IeC {\`\i }nh decoder c\IeC {\ohorn } b\IeC {\h a}n k\IeC {\'\ecircumflex }t h\IeC {\d \ohorn }p v\IeC {\'\ohorn }i c\IeC {\ohorn } ch\IeC {\'\ecircumflex } attention\relax }}{30}}
\newlabel{attention}{{4.4}{30}}
\@writefile{toc}{\contentsline {subsection}{\numberline {4.1.2}M\IeC {\^o} h\IeC {\`\i }nh sinh c\IeC {\^a}u m\IeC {\^o} t\IeC {\h a} \IeC {\h a}nh (decoder)}{30}}
\newlabel{subsec:topdown}{{4.1.2}{30}}
\newlabel{eq:dist}{{4.1}{30}}
\newlabel{eq:xent}{{4.2}{30}}
\@writefile{toc}{\contentsline {subsection}{\numberline {4.1.3}Nh\IeC {\d \acircumflex }n x\IeC {\'e}t}{30}}
\newlabel{subsec:commentbasic}{{4.1.3}{30}}
\@writefile{lof}{\contentsline {figure}{\numberline {4.5}{\ignorespaces M\IeC {\^o} h\IeC {\`\i }nh \IeC {\dj }\IeC {\`\ecircumflex } xu\IeC {\'\acircumflex }t tr\IeC {\'\i }ch xu\IeC {\'\acircumflex }t \IeC {\dj }\IeC {\d \abreve }c tr\IeC {\uhorn }ng t\IeC {\`\uhorn } \IeC {\h a}nh\relax }}{31}}
\newlabel{obj_loc}{{4.5}{31}}
\@writefile{toc}{\contentsline {section}{\numberline {4.2}M\IeC {\^o} h\IeC {\`\i }nh \IeC {\dj }\IeC {\`\ecircumflex } xu\IeC {\'\acircumflex }t}{31}}
\@writefile{toc}{\contentsline {subsection}{\numberline {4.2.1}Thay \IeC {\dj }\IeC {\h \ocircumflex }i m\IeC {\^o} h\IeC {\`\i }nh tr\IeC {\'\i }ch xu\IeC {\'\acircumflex }t \IeC {\dj }\IeC {\d \abreve }c tr\IeC {\uhorn }ng t\IeC {\`\uhorn } \IeC {\h a}nh}{31}}
\newlabel{subsec:bottomupnew}{{4.2.1}{31}}
\@writefile{lof}{\contentsline {figure}{\numberline {4.6}{\ignorespaces M\IeC {\^o} h\IeC {\`\i }nh \IeC {\dj }\IeC {\`\ecircumflex } xu\IeC {\'\acircumflex }t sinh c\IeC {\^a}u m\IeC {\^o} t\IeC {\h a}\relax }}{32}}
\newlabel{lstm-new}{{4.6}{32}}
\@writefile{toc}{\contentsline {subsection}{\numberline {4.2.2}Thay \IeC {\dj }\IeC {\h \ocircumflex }i m\IeC {\^o} h\IeC {\`\i }nh sinh c\IeC {\^a}u m\IeC {\^o} t\IeC {\h a} \IeC {\h a}nh}{32}}
\newlabel{subsec:topdownnew}{{4.2.2}{32}}
\newlabel{eqn:contextobj}{{4.4}{33}}
\newlabel{eqn:contextloc}{{4.5}{33}}
\@writefile{toc}{\contentsline {subsection}{\numberline {4.2.3}Nh\IeC {\d \acircumflex }n x\IeC {\'e}t}{33}}
\newlabel{subsec:commentnew}{{4.2.3}{33}}
\@writefile{lof}{\contentsline {figure}{\numberline {4.7}{\ignorespaces C\IeC {\^a}u m\IeC {\^o} t\IeC {\h a} minh ho\IeC {\d a} do m\IeC {\^o} h\IeC {\`\i }nh s\IeC {\h \uhorn } d\IeC {\d u}ng c\IeC {\'a}c lo\IeC {\d a}i \IeC {\dj }\IeC {\d \abreve }c tr\IeC {\uhorn }ng kh\IeC {\'a}c nhau sinh ra:  \textbf  {Loc feature:} a large airplane sitting on the tarmac at an airport.  \textbf  {Obj feature:} a group of airplanes parked on the runway at an airport.  \textbf  {Obj+Loc feature:} a group of airplanes parked on the tarmac at an airport. \relax }}{34}}
\newlabel{img:example_commentnew}{{4.7}{34}}
\@writefile{toc}{\contentsline {chapter}{\numberline {5}Hi\IeC {\d \ecircumflex }n th\IeC {\d \uhorn }c m\IeC {\^o} h\IeC {\`\i }nh}{35}}
\@writefile{lof}{\addvspace {10\p@ }}
\@writefile{lot}{\addvspace {10\p@ }}
\@writefile{loa}{\addvspace {10\p@ }}
\newlabel{chp:implementation}{{5}{35}}
\@writefile{toc}{\contentsline {section}{\numberline {5.1}C\IeC {\^o}ng c\IeC {\d u}}{35}}
\@writefile{toc}{\contentsline {subsection}{\numberline {5.1.1}Caffe}{35}}
\newlabel{subsec:caffe}{{5.1.1}{35}}
\@writefile{toc}{\contentsline {subsection}{\numberline {5.1.2}Pytorch}{35}}
\newlabel{subsec:pytorch}{{5.1.2}{35}}
\@writefile{toc}{\contentsline {section}{\numberline {5.2}C\IeC {\^o}ng vi\IeC {\d \ecircumflex }c c\IeC {\`\acircumflex }n chu\IeC {\h \acircumflex }n b\IeC {\d i} cho qu\IeC {\'a} tr\IeC {\`\i }nh hu\IeC {\'\acircumflex }n luy\IeC {\d \ecircumflex }n m\IeC {\^o} h\IeC {\`\i }nh}{36}}
\@writefile{toc}{\contentsline {subsection}{\numberline {5.2.1}X\IeC {\h \uhorn } l\IeC {\'\i } t\IeC {\d \acircumflex }p d\IeC {\~\uhorn } li\IeC {\d \ecircumflex }u}{36}}
\@writefile{toc}{\contentsline {subsection}{\numberline {5.2.2}X\IeC {\^a}y d\IeC {\d \uhorn }ng b\IeC {\d \ocircumflex } t\IeC {\`\uhorn } \IeC {\dj }i\IeC {\h \ecircumflex }n}{36}}
\@writefile{toc}{\contentsline {subsection}{\numberline {5.2.3}Word embedding}{36}}
\@writefile{toc}{\contentsline {subsection}{\numberline {5.2.4}T\IeC {\h \ocircumflex } ch\IeC {\'\uhorn }c l\IeC {\uhorn }u tr\IeC {\~\uhorn } \IeC {\dj }\IeC {\d \abreve }c tr\IeC {\uhorn }ng cho qu\IeC {\'a} tr\IeC {\`\i }nh hu\IeC {\'\acircumflex }n luy\IeC {\d \ecircumflex }n}{37}}
\@writefile{toc}{\contentsline {section}{\numberline {5.3}Qu\IeC {\'a} tr\IeC {\`\i }nh h\IeC {\d o}c}{38}}
\@writefile{lof}{\contentsline {figure}{\numberline {5.1}{\ignorespaces Qu\IeC {\'a} tr\IeC {\`\i }nh hu\IeC {\'\acircumflex }n luy\IeC {\d \ecircumflex }n m\IeC {\^o} h\IeC {\`\i }nh\relax }}{38}}
\newlabel{pipeline-training}{{5.1}{38}}
\@writefile{toc}{\contentsline {subsection}{\numberline {5.3.1}T\IeC {\`a}i nguy\IeC {\^e}n s\IeC {\h \uhorn } d\IeC {\d u}ng}{38}}
\@writefile{toc}{\contentsline {subsection}{\numberline {5.3.2}Hu\IeC {\'\acircumflex }n luy\IeC {\d \ecircumflex }n b\IeC {\`\abreve }ng Cross-entropy loss}{38}}
\citation{Vedantam_2015_CVPR}
\citation{2016arXiv161200563R}
\citation{Williams1992}
\newlabel{eqn:xeloss}{{5.1}{39}}
\@writefile{toc}{\contentsline {subsection}{\numberline {5.3.3}Hu\IeC {\'\acircumflex }n luy\IeC {\d \ecircumflex }n s\IeC {\h \uhorn } d\IeC {\d u}ng h\IeC {\d o}c t\IeC {\u a}ng c\IeC {\uhorn }\IeC {\`\ohorn }ng (Reinforcement Learning)}{39}}
\newlabel{eqn:ciderloss}{{5.2}{39}}
\citation{DRL-openai}
\citation{DBLP:journals/corr/KingmaB14}
\@writefile{lof}{\contentsline {figure}{\numberline {5.2}{\ignorespaces Minh ho\IeC {\d a} qu\IeC {\'a} tr\IeC {\`\i }nh hu\IeC {\'\acircumflex }n luy\IeC {\d \ecircumflex }n s\IeC {\h \uhorn } d\IeC {\d u}ng cross-entropy loss\relax }}{40}}
\newlabel{training_crossentropy}{{5.2}{40}}
\newlabel{eq:zerobiasGradientSample}{{5.3}{40}}
\@writefile{toc}{\contentsline {subsection}{\numberline {5.3.4}K\IeC {\'\ecircumflex } ho\IeC {\d a}ch hu\IeC {\'\acircumflex }n luy\IeC {\d \ecircumflex }n}{40}}
\@writefile{lof}{\contentsline {figure}{\numberline {5.3}{\ignorespaces Minh ho\IeC {\d a} qu\IeC {\'a} tr\IeC {\`\i }nh hu\IeC {\'\acircumflex }n luy\IeC {\d \ecircumflex }n s\IeC {\h \uhorn } d\IeC {\d u}ng h\IeC {\d o}c t\IeC {\u a}ng c\IeC {\uhorn }\IeC {\`\ohorn }ng\relax }}{41}}
\newlabel{training_rewardloss}{{5.3}{41}}
\@writefile{toc}{\contentsline {section}{\numberline {5.4}Th\IeC {\'\i } nghi\IeC {\d \ecircumflex }m tr\IeC {\^e}n h\IeC {\d \ecircumflex } s\IeC {\'\ocircumflex } epoch}{41}}
\@writefile{lof}{\contentsline {figure}{\numberline {5.4}{\ignorespaces S\IeC {\d \uhorn } thay \IeC {\dj }\IeC {\h \ocircumflex }i c\IeC {\h u}a c\IeC {\^a}u m\IeC {\^o} t\IeC {\h a} khi th\IeC {\`\ohorn }i gian hu\IeC {\'\acircumflex }n luy\IeC {\d \ecircumflex }n kh\IeC {\'a}c nhau trong m\IeC {\^o} h\IeC {\`\i }nh \textbf  {QK-Captioner}. \textbf  {10000 l\IeC {\`\acircumflex }n l\IeC {\d \abreve }p}: "a baby elephant standing next to a baby elephant", \textbf  {21000 l\IeC {\`\acircumflex }n l\IeC {\d \abreve }p}: "a baby elephant walking across a dirt road", \textbf  {30000 l\IeC {\`\acircumflex }n l\IeC {\d \abreve }p}: "a baby elephant walking in the dirt next to a fence", \textbf  {40000 l\IeC {\`\acircumflex }n l\IeC {\d \abreve }p}: "a baby elephant walking in a dirt field"\relax }}{41}}
\newlabel{epoch-experiment}{{5.4}{41}}
\@writefile{toc}{\contentsline {chapter}{\numberline {6}\IeC {\DJ }\IeC {\'a}nh gi\IeC {\'a} k\IeC {\'\ecircumflex }t qu\IeC {\h a}}{43}}
\@writefile{lof}{\addvspace {10\p@ }}
\@writefile{lot}{\addvspace {10\p@ }}
\@writefile{loa}{\addvspace {10\p@ }}
\newlabel{chp:evaluate}{{6}{43}}
\@writefile{toc}{\contentsline {section}{\numberline {6.1}C\IeC {\'a}c chu\IeC {\h \acircumflex }n \IeC {\dj }o d\IeC {\`u}ng \IeC {\dj }\IeC {\h \ecircumflex } \IeC {\dj }\IeC {\'a}nh gi\IeC {\'a} m\IeC {\^o} h\IeC {\`\i }nh}{43}}
\@writefile{toc}{\contentsline {subsection}{\numberline {6.1.1}CIDEr: Consensus-based Image Description Evaluation}{43}}
\newlabel{eq:if-idf}{{6.1}{44}}
\newlabel{eq:cider1}{{6.2}{44}}
\newlabel{eq:fullcider}{{6.3}{44}}
\@writefile{toc}{\contentsline {subsection}{\numberline {6.1.2}BLEU: Bilingual Evaluation Understudy}{45}}
\@writefile{toc}{\contentsline {subsection}{\numberline {6.1.3}ROUGE}{45}}
\newlabel{eq:rouge-n}{{6.4}{45}}
\newlabel{eq:rouge-nmulti}{{6.5}{45}}
\@writefile{lof}{\contentsline {figure}{\numberline {6.1}{\ignorespaces Minh h\IeC {\d o}a c\IeC {\'a}ch ho\IeC {\d a}t \IeC {\dj }\IeC {\d \ocircumflex }ng c\IeC {\h u}a beam search\relax }}{46}}
\newlabel{beam-search}{{6.1}{46}}
\@writefile{toc}{\contentsline {section}{\numberline {6.2}K\IeC {\'\ecircumflex }t qu\IeC {\h a} \IeC {\dj }\IeC {\'a}nh gi\IeC {\'a} m\IeC {\^o} h\IeC {\`\i }nh}{46}}
\newlabel{sec:result}{{6.2}{46}}
\@writefile{lof}{\contentsline {figure}{\numberline {6.2}{\ignorespaces M\IeC {\^o} h\IeC {\`\i }nh \textbf  {QK-Captioner} th\IeC {\d \uhorn }c thi \IeC {\h \ohorn } ch\IeC {\'\ecircumflex } \IeC {\dj }\IeC {\d \ocircumflex } beam search cho k\IeC {\'\ecircumflex }t qu\IeC {\h a} l\IeC {\`a}:  \textbf  {C\IeC {\^a}u 1}: "a bike parked next to a bus on the street"  \textbf  {C\IeC {\^a}u 2}: "a bicycle parked on the side of a city street"  \textbf  {C\IeC {\^a}u 3}: "a bike parked on the side of a city street"  \textbf  {C\IeC {\^a}u 4}: "a bike parked on the side of a bus"  \textbf  {C\IeC {\^a}u 5}: "a bicycle parked on the side of a street"\relax }}{47}}
\newlabel{example-beamsearch}{{6.2}{47}}
\@writefile{toc}{\contentsline {subsection}{\numberline {6.2.1}\IeC {\DJ }\IeC {\'a}nh gi\IeC {\'a} c\IeC {\'a}c m\IeC {\^o} h\IeC {\`\i }nh b\IeC {\`\abreve }ng CIDEr, BLEU, ROUGE}{47}}
\@writefile{lot}{\contentsline {table}{\numberline {6.1}{\ignorespaces B\IeC {\h a}ng k\IeC {\'\ecircumflex }t qu\IeC {\h a} ch\IeC {\'\acircumflex }m \IeC {\dj }i\IeC {\h \ecircumflex }m c\IeC {\'a}c m\IeC {\^o} h\IeC {\`\i }nh b\IeC {\`\abreve }ng c\IeC {\'a}c th\IeC {\uhorn }\IeC {\'\ohorn }c \IeC {\dj }o kh\IeC {\'a}c nhau.\relax }}{48}}
\newlabel{t_scores1}{{6.1}{48}}
\@writefile{lof}{\contentsline {figure}{\numberline {6.3}{\ignorespaces \textbf  {LocCap}: "a man sitting at a table with a bowl of food"  \textbf  {ObjCap}: "a man sitting at a table with a blender"  \textbf  {QK-Captioner}: "a man is preparing food in a blender on a table" \relax }}{48}}
\newlabel{img:vd2}{{6.3}{48}}
\@writefile{lof}{\contentsline {figure}{\numberline {6.4}{\ignorespaces \textbf  {LocCap}: "a group of people standing next to each other"  \textbf  {ObjCap}: "a group of people standing around in a room"  \textbf  {QK-Captioner}: "a black and white photo of a group of people"\relax }}{49}}
\newlabel{dmausacdmausac}{{6.4}{49}}
\@writefile{lof}{\contentsline {figure}{\numberline {6.5}{\ignorespaces \textbf  {LocCap}: "a red airplane is flying in the sky"  \textbf  {ObjCap}: "a red airplane is flying in the sky"  \textbf  {QK-Captioner}: "a red plane is flying in the sky"\relax }}{50}}
\newlabel{ssmausac1}{{6.5}{50}}
\@writefile{lof}{\contentsline {figure}{\numberline {6.6}{\ignorespaces \textbf  {LocCap}: "a large airplane is flying in the blue sky"  \textbf  {ObjCap}: "a large airplane is flying in the sky"  \textbf  {QK-Captioner}: "a large airplane is flying in the sky"\relax }}{50}}
\newlabel{ssmausac2}{{6.6}{50}}
\@writefile{lof}{\contentsline {figure}{\numberline {6.7}{\ignorespaces K\IeC {\'\ecircumflex }t qu\IeC {\h a} v\IeC {\'\ohorn }i c\IeC {\'a}c m\IeC {\^o} h\IeC {\`\i }nh attention kh\IeC {\'a}c nhau. \textbf  {LocCap}: "a motorcycle parked on a dirt road", \textbf  {ObjCap}: "a motorcycle parked in a field with a herd of sheep", \textbf  {QK-Captioner}: "a motorcycle parked next to a fence in the dirt"\relax }}{51}}
\newlabel{example1}{{6.7}{51}}
\@writefile{lof}{\contentsline {figure}{\numberline {6.8}{\ignorespaces K\IeC {\'\ecircumflex }t qu\IeC {\h a} v\IeC {\'\ohorn }i c\IeC {\'a}c m\IeC {\^o} h\IeC {\`\i }nh attention kh\IeC {\'a}c nhau. \textbf  {LocCap}: "a man holding a bunch of bananas", \textbf  {ObjCap}: "a man and a young boy holding a banana", \textbf  {QK-Captioner}: "a man holding a bunch of bananas on his head"\relax }}{52}}
\newlabel{example2}{{6.8}{52}}
\@writefile{lof}{\contentsline {figure}{\numberline {6.9}{\ignorespaces K\IeC {\'\ecircumflex }t qu\IeC {\h a} v\IeC {\'\ohorn }i c\IeC {\'a}c m\IeC {\^o} h\IeC {\`\i }nh attention kh\IeC {\'a}c nhau. \textbf  {LocCap}: "a woman standing on the sidewalk in front of a store", \textbf  {ObjCap}: "a woman riding a skateboard in the street", \textbf  {QK-Captioner}: "a woman standing on a skateboard in front of a store"\relax }}{53}}
\newlabel{example3}{{6.9}{53}}
\@writefile{lof}{\contentsline {figure}{\numberline {6.10}{\ignorespaces K\IeC {\'\ecircumflex }t qu\IeC {\h a} v\IeC {\'\ohorn }i c\IeC {\'a}c m\IeC {\^o} h\IeC {\`\i }nh attention kh\IeC {\'a}c nhau. \textbf  {LocCap}: "a man riding a skateboard on a ramp", \textbf  {ObjCap}: "a man riding a bike in front of a building", \textbf  {QK-Captioner}: "a man riding a bike next to a wall"\relax }}{54}}
\newlabel{example4}{{6.10}{54}}
\@writefile{lof}{\contentsline {figure}{\numberline {6.11}{\ignorespaces K\IeC {\'\ecircumflex }t qu\IeC {\h a} v\IeC {\'\ohorn }i c\IeC {\'a}c m\IeC {\^o} h\IeC {\`\i }nh attention kh\IeC {\'a}c nhau. \textbf  {LocCap}: "a dog wearing a tie sitting on the floor", \textbf  {ObjCap}: "a dog wearing a tie standing in front of a book", \textbf  {QK-Captioner}: "a brown and white dog wearing a tie"\relax }}{55}}
\newlabel{example5}{{6.11}{55}}
\@writefile{lof}{\contentsline {figure}{\numberline {6.12}{\ignorespaces K\IeC {\'\ecircumflex }t qu\IeC {\h a} v\IeC {\'\ohorn }i c\IeC {\'a}c m\IeC {\^o} h\IeC {\`\i }nh attention kh\IeC {\'a}c nhau. \textbf  {LocCap}: "a black and white cat laying on a bed", \textbf  {ObjCap}: "a black and white cat laying on a bed", \textbf  {QK-Captioner}: "a black and white cat laying on a green blanket"\relax }}{56}}
\newlabel{example6}{{6.12}{56}}
\@writefile{lof}{\contentsline {figure}{\numberline {6.13}{\ignorespaces K\IeC {\'\ecircumflex }t qu\IeC {\h a} v\IeC {\'\ohorn }i c\IeC {\'a}c m\IeC {\^o} h\IeC {\`\i }nh attention kh\IeC {\'a}c nhau. \textbf  {LocCap}: "a group of people riding on the back of an elephant", \textbf  {ObjCap}: "a man riding on the back of an elephant", \textbf  {QK-Captioner}: "a man walking with an elephant down a city street"\relax }}{57}}
\newlabel{example7}{{6.13}{57}}
\@writefile{lof}{\contentsline {figure}{\numberline {6.14}{\ignorespaces K\IeC {\'\ecircumflex }t qu\IeC {\h a} v\IeC {\'\ohorn }i c\IeC {\'a}c m\IeC {\^o} h\IeC {\`\i }nh attention kh\IeC {\'a}c nhau. \textbf  {LocCap}: "a group of people playing with a ball in a fence", \textbf  {ObjCap}: "a group of people playing with a frisbee in the street", \textbf  {QK-Captioner}: "a group of people walking in the street with kites"\relax }}{58}}
\newlabel{example8}{{6.14}{58}}
\newlabel{confuse1}{{6.15c}{59}}
\newlabel{sub@confuse1}{{c}{59}}
\@writefile{lof}{\contentsline {figure}{\numberline {6.15}{\ignorespaces K\IeC {\'\ecircumflex }t qu\IeC {\h a} v\IeC {\'\ohorn }i c\IeC {\'a}c m\IeC {\^o} h\IeC {\`\i }nh attention kh\IeC {\'a}c nhau. \textbf  {LocCap}: "a woman sitting in the grass sitting on a chair", \textbf  {ObjCap}: "a woman sitting on a suitcase in the woods", \textbf  {QK-Captioner}: "a woman sitting on the ground talking on a cell phone"\relax }}{59}}
\newlabel{example9}{{6.15}{59}}
\@writefile{lof}{\contentsline {figure}{\numberline {6.16}{\ignorespaces K\IeC {\'\ecircumflex }t qu\IeC {\h a} v\IeC {\'\ohorn }i c\IeC {\'a}c m\IeC {\^o} h\IeC {\`\i }nh attention kh\IeC {\'a}c nhau. \textbf  {LocCap}: "a man standing on a beach next to a mountain", \textbf  {ObjCap}: "a person walking down the road with a beach", \textbf  {QK-Captioner}: "a couple of people walking down the beach with a dog"\relax }}{60}}
\newlabel{example10}{{6.16}{60}}
\@writefile{lot}{\contentsline {table}{\numberline {6.2}{\ignorespaces B\IeC {\h a}ng th\IeC {\'\ocircumflex }ng k\IeC {\^e} s\IeC {\'\ocircumflex } l\IeC {\uhorn }\IeC {\d \ohorn }ng b\IeC {\d i} l\IeC {\~\ocircumflex }i k\IeC {\'\ecircumflex }t th\IeC {\'u}c b\IeC {\`\abreve }ng "in the" \IeC {\h \ohorn } c\IeC {\'a}c m\IeC {\^o} h\IeC {\`\i }nh.\relax }}{61}}
\newlabel{table_scores1}{{6.2}{61}}
\@writefile{toc}{\contentsline {subsection}{\numberline {6.2.2}\IeC {\DJ }i\IeC {\`\ecircumflex }u ch\IeC {\h i}nh c\IeC {\^a}u sinh ra t\IeC {\`\uhorn } m\IeC {\^o} h\IeC {\`\i }nh}{61}}
\@writefile{lot}{\contentsline {table}{\numberline {6.3}{\ignorespaces B\IeC {\h a}ng k\IeC {\'\ecircumflex }t qu\IeC {\h a} ch\IeC {\'\acircumflex }m \IeC {\dj }i\IeC {\h \ecircumflex }m c\IeC {\'a}c m\IeC {\^o} h\IeC {\`\i }nh b\IeC {\`\abreve }ng c\IeC {\'a}c th\IeC {\uhorn }\IeC {\'\ohorn }c \IeC {\dj }o kh\IeC {\'a}c nhau sau khi \IeC {\'a}p d\IeC {\d u}ng ph\IeC {\uhorn }\IeC {\ohorn }ng ph\IeC {\'a}p 1.\relax }}{62}}
\newlabel{t_adjust1}{{6.3}{62}}
\@writefile{lot}{\contentsline {table}{\numberline {6.4}{\ignorespaces B\IeC {\h a}ng k\IeC {\'\ecircumflex }t qu\IeC {\h a} ch\IeC {\'\acircumflex }m \IeC {\dj }i\IeC {\h \ecircumflex }m c\IeC {\'a}c m\IeC {\^o} h\IeC {\`\i }nh b\IeC {\`\abreve }ng c\IeC {\'a}c th\IeC {\uhorn }\IeC {\'\ohorn }c \IeC {\dj }o kh\IeC {\'a}c nhau sau khi \IeC {\'a}p d\IeC {\d u}ng ph\IeC {\uhorn }\IeC {\ohorn }ng ph\IeC {\'a}p 2.\relax }}{62}}
\newlabel{t_adjust2}{{6.4}{62}}
\@writefile{lot}{\contentsline {table}{\numberline {6.5}{\ignorespaces B\IeC {\h a}ng k\IeC {\'\ecircumflex }t qu\IeC {\h a} ch\IeC {\'\acircumflex }m \IeC {\dj }i\IeC {\h \ecircumflex }m c\IeC {\'a}c m\IeC {\^o} h\IeC {\`\i }nh b\IeC {\`\abreve }ng c\IeC {\'a}c th\IeC {\uhorn }\IeC {\'\ohorn }c \IeC {\dj }o kh\IeC {\'a}c nhau sau khi \IeC {\'a}p d\IeC {\d u}ng ph\IeC {\uhorn }\IeC {\ohorn }ng ph\IeC {\'a}p 3.\relax }}{62}}
\newlabel{t_adjust3}{{6.5}{62}}
\@writefile{lof}{\contentsline {figure}{\numberline {6.17}{\ignorespaces M\IeC {\^o} h\IeC {\`\i }nh \textbf  {QK-Captioner}: "a city street with cars and a truck in the" \relax }}{63}}
\newlabel{img:vd1}{{6.17}{63}}
\@writefile{toc}{\contentsline {section}{\numberline {6.3}Th\IeC {\h a}o lu\IeC {\d \acircumflex }n}{63}}
\newlabel{sec:difficulties}{{6.3}{63}}
\bibstyle{unsrt}
\bibdata{refs.bib}
\@writefile{toc}{\contentsline {chapter}{\numberline {7}T\IeC {\h \ocircumflex }ng k\IeC {\'\ecircumflex }t}{65}}
\@writefile{lof}{\addvspace {10\p@ }}
\@writefile{lot}{\addvspace {10\p@ }}
\@writefile{loa}{\addvspace {10\p@ }}
\newlabel{chp:tongket}{{7}{65}}
\bibcite{DBLP:journals/corr/VinyalsTBE14}{{1}{}{{}}{{}}}
\bibcite{DBLP:journals/corr/XuBKCCSZB15}{{2}{}{{}}{{}}}
\bibcite{2017arXiv170707998A}{{3}{}{{}}{{}}}
\bibcite{MLP}{{4}{}{{}}{{}}}
\bibcite{MLP1hidden}{{5}{}{{}}{{}}}
\bibcite{CNN}{{6}{}{{}}{{}}}
\bibcite{https://adeshpande3.github.io}{{7}{}{{}}{{}}}
\bibcite{nopadding}{{8}{}{{}}{{}}}
\bibcite{padding_stride1}{{9}{}{{}}{{}}}
\bibcite{pooling}{{10}{}{{}}{{}}}
\bibcite{https://machinelearningmastery.com}{{11}{}{{}}{{}}}
\bibcite{https://kvitajakub.github.io}{{12}{}{{}}{{}}}
\bibcite{ILSVRC}{{13}{}{{}}{{}}}
\bibcite{https://towardsdatascience.com}{{14}{}{{}}{{}}}
\bibcite{https://jhui.github.io}{{15}{}{{}}{{}}}
\bibcite{attention}{{16}{}{{}}{{}}}
\bibcite{2014arXiv1409.0575R}{{17}{}{{}}{{}}}
\bibcite{d7f59895de804900b0c6d17f4b361656}{{18}{}{{}}{{}}}
\bibcite{Hodosh:2013:FID:2566972.2566993}{{19}{}{{}}{{}}}
\bibcite{Ordonez:2011:IDI:2986459.2986587}{{20}{}{{}}{{}}}
\bibcite{DBLP:journals/corr/SutskeverVL14}{{21}{}{{}}{{}}}
\bibcite{DBLP:journals/corr/BahdanauCB14}{{22}{}{{}}{{}}}
\bibcite{DBLP:journals/corr/SimonyanZ14a}{{23}{}{{}}{{}}}
\bibcite{DBLP:journals/corr/KingmaB14}{{24}{}{{}}{{}}}
\bibcite{2015arXiv150601497R}{{25}{}{{}}{{}}}
\bibcite{2015arXiv151106361V}{{26}{}{{}}{{}}}
\bibcite{2016arXiv161200563R}{{27}{}{{}}{{}}}
\bibcite{dataset-flickr8k}{{28}{}{{}}{{}}}
\bibcite{dataset-flickr30k}{{29}{}{{}}{{}}}
\bibcite{DBLP:journals/corr/ChenFLVGDZ15}{{30}{}{{}}{{}}}
\bibcite{Papineni:2002:BMA:1073083.1073135}{{31}{}{{}}{{}}}
\bibcite{Lavie:2007:MAM:1626355.1626389}{{32}{}{{}}{{}}}
\bibcite{Vedantam_2015_CVPR}{{33}{}{{}}{{}}}
\bibcite{NIPS2010_4089}{{34}{}{{}}{{}}}
\bibcite{2011arXiv1109.3737D}{{35}{}{{}}{{}}}
\bibcite{Williams1992}{{36}{}{{}}{{}}}
\bibcite{Hochreiter:1997:LSM:1246443.1246450}{{37}{}{{}}{{}}}
\bibcite{DRL-openai}{{38}{}{{}}{{}}}
\providecommand\NAT@force@numbers{}\NAT@force@numbers
